MyLabJournal - Explaining Black-Box Models With LIME
…
explanation %>%
  as.tibble() %>%
  print()

#> Warning: `as.tibble()` was deprecated in tibble 2.0.0.
#> ℹ Please use `as_tibble()` instead.
#> ℹ The signature and semantics have changed, see `?as_tibble`.

#> # A tibble: 160 × 13
#>    model_type   case  label label_prob model_r2 model_intercept model_prediction
#>    <chr>        <chr> <chr>      <dbl>    <dbl>           <dbl>            <dbl>
#>  1 classificat… 1     No         0.642    0.295           0.860            0.561
#>  2 classificat… 1     No         0.642    0.295           0.860            0.561
#>  3 classificat… 1     No         0.642    0.295           0.860            0.561
#>  4 classificat… 1     No         0.642    0.295           0.860            0.561
#>  5 classificat… 1     No         0.642    0.295           0.860            0.561
#>  6 classificat… 1     No         0.642    0.295           0.860            0.561
#>  7 classificat… 1     No         0.642    0.295           0.860            0.561
#>  8 classificat… 1     No         0.642    0.295           0.860            0.561
#>  9 classificat… 2     No         0.782    0.393           0.695            0.750
#> 10 classificat… 2     No         0.782    0.393           0.695            0.750
#> # ℹ 150 more rows
#> # ℹ 6 more variables: feature <chr>, feature_value <dbl>, feature_weight <dbl>,
#> #   feature_desc <chr>, data <list>, prediction <list>
…
