MyLabJournal - Tidyverse challenge
…
      # Format
          mutate(sales_text = scales::dollar(sales, big.mark = ".", 
                                     decimal.mark = ",", 
                                     prefix = "", 
                                     suffix = " €"))

`summarise()` has grouped output by 'year'. You can override using the
`.groups` argument.

        sales_by_state_year_tbl

# A tibble: 60 × 4
    year state                           sales sales_text 
   <dbl> <chr>                           <dbl> <chr>      
 1  2015 Baden-Württemberg             1031924 1.031.924 €
 2  2015 Bavaria                       1301461 1.301.461 €
 3  2015 Berlin                          95853 95.853 €   
 4  2015 Bremen                        1395912 1.395.912 €
 5  2015 Hamburg                        423090 423.090 €  
 6  2015 Hesse                          308609 308.609 €  
 7  2015 Lower Saxony                   584386 584.386 €  
 8  2015 Mecklenburg-Western Pomerania  222003 222.003 €  
 9  2015 North Rhine-Westphalia        3735092 3.735.092 €
10  2015 Saxony                         238371 238.371 €  
# ℹ 50 more rows
…
